Chilean prosecutor's office Data merge (Step 4)
…
  # 2022-11-01, filter
Base_fiscalia_v12<-
  dplyr::filter(Base_fiscalia_v11, !grepl("Referral|Death",motivodeegreso_mod_imp))
  
invisible("Ver por qu los valores negativos-R: por que entre la admisin y terminar el tratamiento hay casos que registraron un delito")
invisible("ver por qu no recodifica a los motivo de egresos de manera iterativa")
invisible("QUEDA POR LIMPIAR LA BASE DE FISCALIA")
invisible("Qu hacer con Death, Referral to another treatment, Ongoing treatment")

Base_fiscalia_v12 %>% 
  dplyr::select(hash_key, fech_nac, fech_nac_rec, motivodeegreso_mod_imp_rec, age_offending_imp, edad_al_ing_1, edad_comision, fec_comision_simple, caseid, crime_code_group_rec_prof, end_type_2, gls_proctermino, s_sentence_1, s_restorative_3, s_kindprison_1) %>% 
dplyr::filter(hash_key=="1951c4d080cda8b68759d638a840d82f")

# A tibble: 30 x 15
   hash_key  fech_nac   fech_nac_rec motivodeegreso_~ age_offending_i~
   <chr>     <date>     <date>       <chr>                       <dbl>
 1 1951c4d0~ 1985-12-14 1986-12-11   Treatment non-c~             27.6
 2 1951c4d0~ 1985-12-14 1986-12-11   Treatment non-c~             27.6
 3 1951c4d0~ 1985-12-14 1986-12-11   Treatment non-c~             27.6
 4 1951c4d0~ 1985-12-14 1986-12-11   Treatment non-c~             27.6
 5 1951c4d0~ 1985-12-14 1986-12-11   Treatment non-c~             27.6
 6 1951c4d0~ 1985-12-14 1986-12-11   Treatment non-c~             27.6
 7 1951c4d0~ 1985-12-14 1986-12-11   Treatment non-c~             27.6
 8 1951c4d0~ 1985-12-14 1986-12-11   Treatment non-c~             27.6
 9 1951c4d0~ 1985-12-14 1986-12-11   Treatment non-c~             27.6
10 1951c4d0~ 1985-12-14 1986-12-11   Treatment non-c~             27.6
# ... with 20 more rows, and 10 more variables: edad_al_ing_1 <dbl>,
#   edad_comision <dbl>, fec_comision_simple <date>, caseid <chr>,
#   crime_code_group_rec_prof <chr>, end_type_2 <chr>,
#   gls_proctermino <chr>, s_sentence_1 <chr>, s_restorative_3 <chr>,
#   s_kindprison_1 <chr>
…
